[{
    "name": "Text",
    "scope": "variable.parameter",
    "foreground": "var(grey4)"
}, {
    "name": "Comments",
    "scope": "comment, punctuation.definition.comment",
    "foreground": "var(grey)"
}, {
    "name": "Punctuation",
    "scope": "punctuation.definition - punctuation.definition.numeric.base",
    "foreground": "var(grey6)"
}, {
    "name": "Operators",
    "scope": "keyword.operator",
    "foreground": "var(blue2)"
}, {
    "name": "Keywords",
    "scope": "keyword, keyword.operator.word",
    "foreground": "var(pink)"
}, {
    "name": "Variables",
    "scope": "variable",
    "foreground": "var(red)"
}, {
    "name": "Functions",
    "scope": "entity.name.function",
    "foreground": "var(blue)"
}, {
    "name": "Classes",
    "scope": "entity.name - (entity.name.section | entity.name.tag | entity.name.label)",
    "foreground": "var(orange2)"
}, {
    "name": "Storage",
    "scope": "storage",
    "foreground": "var(pink)"
}, {
    "name": "Storage Type",
    "scope": "storage.type",
    "font_style": "italic"
}, {
    "name": "Support Functions",
    "scope": "support.function",
    "foreground": "var(blue2)"
}, {
    "name": "Support Classes",
    "scope": "support.class",
    "foreground": "var(blue2)",
    "font_style": "italic"
}, {
    "name": "Support Constants",
    "scope": "support.constant",
    "foreground": "var(orange)",
    "font_style": "italic"
}, {
    "name": "CSS Support Constants",
    "scope": "source.css support.constant",
    "foreground": "var(blue2)"
}, {
    "name": "Strings, Inherited Class",
    "scope": "string, entity.other.inherited-class",
    "foreground": "var(yellow)"
}, {
    "name": "Misc Punctuation",
    "scope": "punctuation.separator, punctuation.terminator, punctuation.accessor",
    "foreground": "var(grey2)"
}, {
    "name": "Misc Punctuation",
    "scope": "punctuation.section",
    "foreground": "var(grey3)"
}, {
    "name": "Strings Punctuation",
    "scope": "string punctuation.definition.string",
    "foreground": "var(blue2)"
}, {
    "name": "Number",
    "scope": "constant.numeric",
    "foreground": "var(orange)"
}, {
    "name": "Number suffix",
    "scope": "storage.type.numeric",
    "foreground": "var(pink)",
    "font_style": "italic"
}, {
    "name": "Constants",
    "scope": "constant",
    "foreground": "var(orange)"
}, {
    "name": "Tags",
    "scope": "entity.name.tag",
    "foreground": "var(red)"
}, {
    "name": "Attributes",
    "scope": "entity.other.attribute-name",
    "foreground": "var(orange)"
}, {
    "name": "Headings",
    "scope": "markup.heading punctuation.definition.heading",
    "foreground": "var(red)"
}, {
    "name": "Bold",
    "scope": "punctuation.definition.bold",
    "foreground": "var(orange2)"
}, {
    "name": "Bold",
    "scope": "markup.bold",
    "font_style": "bold"
}, {
    "name": "Italic",
    "scope": "markup.italic",
    "font_style": "italic"
}, {
    "name": "markup underline",
    "scope": "markup.underline",
    "font_style": "underline"
}, {
    "name": "markup bold/italic",
    "scope": "markup.italic markup.bold | markup.bold markup.italic",
    "font_style": "bold italic"
}, {
    "name": "markup bold/underline",
    "scope": "markup.underline markup.bold | markup.bold markup.underline",
    "font_style": "bold underline"
}, {
    "name": "markup italic/underline",
    "scope": "markup.underline markup.italic | markup.italic markup.underline",
    "font_style": "italic underline"
}, {
    "name": "markup bold/italic/underline",
    "scope": "markup.bold markup.italic markup.underline | markup.bold markup.underline markup.italic | markup.italic markup.bold markup.underline | markup.italic markup.underline markup.bold | markup.underline markup.bold markup.italic | markup.underline markup.italic markup.bold",
    "font_style": "bold italic underline"
}, {
    "name": "Italic",
    "scope": "punctuation.definition.italic",
    "foreground": "var(pink)"
}, {
    "name": "Code",
    "scope": "markup.raw",
    "background": "var(white2)"
}, {
    "name": "Code",
    "scope": "markup.raw.inline",
    "foreground": "var(yellow)",
    "background": "var(white3)"
}, {
    "name": "Strings Punctuation",
    "scope": "markup.raw.inline punctuation.definition.raw",
    "foreground": "var(blue2)"
}, {
    "name": "Link Text",
    "scope": "string.other.link, markup.underline.link",
    "foreground": "var(blue)"
}, {
    "name": "Lists",
    "scope": "punctuation.definition.list_item, markup.list.numbered.bullet",
    "foreground": "var(blue2)"
}, {
    "name": "Quotes",
    "scope": "punctuation.definition.blockquote",
    "foreground": "var(orange)"
}, {
    "name": "Quotes",
    "scope": "punctuation.definition.blockquote",
    "foreground": "var(orange)"
}, {
    "name": "Link/Image Punctuation",
    "scope": "punctuation.definition.image, punctuation.definition.link, punctuation.definition.metadata",
    "foreground": "var(grey2)"
}, {
    "name": "Inserted",
    "scope": "markup.inserted",
    "foreground": "var(yellow)"
}, {
    "name": "Deleted",
    "scope": "markup.deleted",
    "foreground": "var(red)"
}, {
    "name": "Changed",
    "scope": "markup.changed",
    "foreground": "var(orange)"
}, {
    "name": "Colors",
    "scope": "constant.other.color",
    "foreground": "var(blue2)"
}, {
    "name": "Regular Expressions",
    "scope": "string.regexp",
    "foreground": "var(blue2)"
}, {
    "name": "Regular Expressions Operator",
    "scope": "string.regexp keyword.operator",
    "foreground": "var(pink)"
}, {
    "name": "Escape Characters",
    "scope": "constant.character.escape",
    "foreground": "var(blue2)"
}, {
    "name": "YAML String",
    "scope": "source.yaml string.unquoted",
    "foreground": "var(grey5)"
}, {
    "name": "Embedded",
    "scope": "punctuation.section.embedded",
    "foreground": "var(blue2)"
}, {
    "name": "Embedded",
    "scope": "variable.interpolation",
    "foreground": "var(pink)"
}, {
    "name": "Illegal",
    "scope": "invalid.illegal",
    "foreground": "var(white)",
    "background": "var(red)"
}, {
    "name": "Invalid deprecated",
    "scope": "invalid.deprecated",
    "foreground": "var(white)",
    "background": "var(orange)"
}]
